Differential Splicing
…
DE.results %>% pull(treatment) %>% unique()

[1] "C2"    "CUOME" "SM2"   "A10"  

DE.results %>%
  select(treatment, GeneSymbol, logFC, logCPM, PValue, FDR) %>%
  filter(GeneSymbol %in% GenesOfInterest)

# A tibble: 24 x 6
   treatment GeneSymbol   logFC  logCPM   PValue      FDR
   <chr>     <chr>        <dbl>   <dbl>    <dbl>    <dbl>
 1 C2        GALC       -1.81    3.81   1.09e-14 1.66e-12
 2 C2        HTT        -0.728   6.07   1.14e- 7 1.19e- 6
 3 C2        FOXM1      -0.153   7.01   1.01e- 2 2.45e- 2
 4 C2        SMN2        0.208   4.83   1.41e- 2 3.27e- 2
 5 C2        MAPT       -0.517   0.0804 1.72e- 2 3.90e- 2
 6 C2        SNCA       -0.483  -2.27   3.72e- 1 4.88e- 1
 7 CUOME     GALC       -0.655   3.81   5.89e- 8 1.63e- 6
 8 CUOME     SMN2       -0.347   4.83   2.90e- 4 1.85e- 3
 9 CUOME     SNCA        1.20   -2.27   2.20e- 2 6.24e- 2
10 CUOME     FOXM1      -0.0871  7.01   1.19e- 1 2.32e- 1
# … with 14 more rows
…
ClinVar %>%
  count(Chr, Pos, Gene, Condition) %>%
  arrange(desc(n))

# A tibble: 820,677 x 5
     Chr      Pos Gene        Condition                                   n
   <dbl>    <dbl> <chr>       <chr>                                   <int>
 1    15   4.34e7 ENSG000001… ['not_provided']                           19
 2     3   3.70e7 ENSG000000… ['Hereditary_nonpolyposis_colorectal_n…    17
 3     3   2.56e7 ENSG000000… ['not_provided']                           13
 4    11   2.88e6 ENSG000001… ['Beckwith-Wiedemann_syndrome']            12
 5    14   9.51e7 ENSG000001… ['DICER1-related_pleuropulmonary_blast…    11
 6    18   5.11e7 ENSG000001… ['Myhre_syndrome|Hereditary_hemorrhagi…    10
 7     2   1.65e8 ENSG000001… ['Seizures', '_benign_familial_infanti…     9
 8     2   2.06e8 ENSG000000… ['not_provided']                            9
 9    11   9.44e7 ENSG000000… ['Ataxia-telangiectasia-like_disorder_…     9
10    17   1.81e7 ENSG000000… ['not_provided']                            9
# … with 820,667 more rows
…
