ExploreSpecificityEstimates
…
And are any specific and at a fairly low EC50?

GA.GT %>%
  filter_at(vars(starts_with("EC.Ratio.Test.Estimate.FDR")), any_vars((.<0.05))) %>%
  dplyr::select(junc, starts_with("EC.Ratio.Test.Estimate.FDR"), starts_with("ECRatio.ComparedToGenomewideMedian")) %>%
  pivot_longer(starts_with("EC"), names_to =c("stat", "contrast"), names_sep="_") %>%
  pivot_wider(names_from="stat", values_from="value") %>%
  filter(EC.Ratio.Test.Estimate.FDR < 0.05)

# A tibble: 1,016 × 4
   junc                              contrast  EC.Ratio.Test.E… ECRatio.Compare…
   <chr>                             <chr>                <dbl>            <dbl>
 1 chr1:8365974:8396444:clu_176_-    Branapla…         1.35e- 6           0.435 
 2 chr1:8365974:8396444:clu_176_-    C2C5.Ris…         2.37e- 2           2.27  
 3 chr1:9714131:9715541:clu_2143_+   Branapla…         9.01e- 3           2.49  
 4 chr1:9714131:9715541:clu_2143_+   Branapla…         2.87e- 2           2.23  
 5 chr1:11981853:11981970:clu_2204_+ C2C5.Ris…         4.90e- 2           0.516 
 6 chr1:12066023:12072160:clu_2210_+ Branapla…         1.02e-32           0.0408
 7 chr1:12066023:12072160:clu_2210_+ Branapla…         6.33e-33           0.0206
 8 chr1:12066023:12072160:clu_2210_+ C2C5.Ris…         1.56e- 3           0.453 
 9 chr1:15426830:15427150:clu_2238_+ Branapla…         1.46e- 8           0.199 
10 chr1:15426830:15427150:clu_2238_+ Branapla…         6.76e-13           0.235 
# … with 1,006 more rows
…
