Tidy LCL data for Jingxin
…
# Add the UpstreamSpliceAcceptor column to the splicing.gagt.df. NA indicates there is no upstream splice acceptor
splicing.gagt.df <- splicing.gagt.df %>%
  mutate(SpliceDonor = case_when(
    strand == "+" ~ paste(`#Chrom`, start, strand, sep="."),
    strand == "-" ~ paste(`#Chrom`, end, strand, sep=".")
    )) %>%
  left_join(UpstreamAcceptors.df, by="SpliceDonor") %>%
  mutate(IntronType = recode(anchor, A="Alt 5'ss", D="Alt 3'ss", DA="Annotated", N="New Intron", NDA="New Splice Site combination"))

So I added a new column called UpstreamSpliceAcceptor that has the coordinates of the nearest upstream 3’ss within 300bp. I have found that this is a good way to filter for the GA|GT introns involved in cassette exon inclusion. If this column has NA, it is unlikely this intron is involved in exon inclusion. Probably, if i wanted to filter for the introns with the highest confidence for being involved in new cassette exons, I would filter for Alt 5’ss with an UpstreamSpliceAcceptor:

splicing.gagt.df %>%
  filter(IntronType == "Alt 5'ss" & !is.na(UpstreamSpliceAcceptor))

# A tibble: 1,033 × 52
   `#Chrom`    start    end junc  gid   strand Branaplam_3160_… Branaplam_1000_…
   <chr>       <dbl>  <dbl> <chr> <chr> <chr>             <dbl>            <dbl>
 1 chr1      1300068 1.30e6 chr1… chr1… -                  0.28             0.53
 2 chr1      1390865 1.39e6 chr1… chr1… -                  7.9              1.2 
 3 chr1      8015692 8.02e6 chr1… chr1… -                  4.4             16   
 4 chr1      8365974 8.40e6 chr1… chr1… -                 49               48   
 5 chr1      9714131 9.72e6 chr1… chr1… +                 33               24   
 6 chr1      9773394 9.81e6 chr1… chr1… -                  1.4              0   
 7 chr1     10178166 1.02e7 chr1… chr1… +                  8.6              0.47
 8 chr1     11243300 1.12e7 chr1… chr1… -                  9.7              6.1 
 9 chr1     11952068 1.20e7 chr1… chr1… +                  8.5              3   
10 chr1     11981853 1.20e7 chr1… chr1… +                 26               21   
# … with 1,023 more rows, and 44 more variables:
#   Branaplam_316_LCL_polyA_1 <dbl>, Branaplam_100_LCL_polyA_1 <dbl>,
#   Branaplam_31.6_LCL_polyA_1 <dbl>, Branaplam_10_LCL_polyA_1 <dbl>,
#   Branaplam_3.16_LCL_polyA_1 <dbl>, Branaplam_1_LCL_polyA_1 <dbl>,
#   C2C5_1000_LCL_polyA_1 <dbl>, C2C5_316_LCL_polyA_1 <dbl>,
#   C2C5_100_LCL_polyA_1 <dbl>, C2C5_31.6_LCL_polyA_1 <dbl>,
#   C2C5_10_LCL_polyA_1 <dbl>, C2C5_3.16_LCL_polyA_1 <dbl>, …
…
