IdentifyTargetsForVerification
…
splicing.table %>%
  inner_join(all.samples.intron.annotations, by=c("#Chrom"="chrom", "start", "end", "strand")) %>%
  inner_join(all.samples.5ss, by=c("#Chrom"="chrom", "start", "end"="stop", "strand")) %>%
  filter(gene_names %in% c("KITLG", "STAT1", "PIEZO1", "RNF170")) %>%
  mutate(IsGAGT = str_detect(seq, "^\\w{2}GAGT")) %>%
  group_by(gid) %>%
  mutate(ClusterContainsGAGT = any(IsGAGT)) %>%
  ungroup() %>%
  filter(ClusterContainsGAGT) %>%
  mutate(IntronType = recode(anchor, A="Alt 5'ss", D="Alt 3'ss", DA="Annotated", N="New Intron", NDA="New Splice Site combination")) %>%
  select(-c("A10_NA_Fibroblast_polyA_1":"Branaplam_31.6_LCL_chRNA_3")) %>%
  select(junc, gene_names, IsGAGT, IntronType)

# A tibble: 22 × 4
   junc                                gene_names IsGAGT IntronType
   <chr>                               <chr>      <lgl>  <chr>     
 1 chr12:88516490:88518149:clu_23943_- KITLG      FALSE  Alt 5'ss  
 2 chr12:88516490:88518195:clu_23943_- KITLG      TRUE   Alt 5'ss  
 3 chr12:88516490:88518697:clu_23943_- KITLG      FALSE  Annotated 
 4 chr12:88518308:88518697:clu_23943_- KITLG      FALSE  Alt 3'ss  
 5 chr16:88720525:88720616:clu_30902_- PIEZO1     FALSE  Alt 3'ss  
 6 chr16:88720532:88720616:clu_30902_- PIEZO1     FALSE  Annotated 
 7 chr16:88720532:88720660:clu_30902_- PIEZO1     TRUE   Alt 5'ss  
 8 chr2:190977025:190978528:clu_5141_- STAT1      TRUE   Alt 5'ss  
 9 chr2:190977025:190978856:clu_5141_- STAT1      FALSE  Annotated 
10 chr2:190978606:190978856:clu_5141_- STAT1      FALSE  Alt 3'ss  
# … with 12 more rows
…
