20220919_chRNA_IntronRetention
…
…as expected. Overall I don’t think drug-induced exons are actually that more apparent in chRNA. Later I will peruse a large handful of sashimi plots to make verify. Now let’s move on to looking at the natural splicing rate of introns that host the drug-induced exons…

Host intron inclusion of drug-induced introns

First let’s look at the correlation matrix based on IntronExcisionRatio and SpliceEfficiency metrics (see SpliceQ paper) for the GA|GT introns that I previously fit dose-response curves to… Since

GA.GT.Introns.DrugInducedCassetteExons

# A tibble: 454 × 34
   junc         `#Chrom`  start    end gid   strand seq   Donor.score gene_names
   <chr>        <chr>     <dbl>  <dbl> <chr> <chr>  <chr>       <dbl> <chr>     
 1 chr1:120396… chr1     1.20e6 1.20e6 chr1… -      AGGA…        4.21 TNFRSF18  
 2 chr1:836597… chr1     8.37e6 8.40e6 chr1… -      AAGA…        5.57 RERE      
 3 chr1:971413… chr1     9.71e6 9.72e6 chr1… +      AGGA…        4.27 PIK3CD    
 4 chr1:119818… chr1     1.20e7 1.20e7 chr1… +      ATGA…        3.40 MFN2      
 5 chr1:120660… chr1     1.21e7 1.21e7 chr1… +      GAGA…        1.60 <NA>      
 6 chr1:154268… chr1     1.54e7 1.54e7 chr1… +      CAGA…        4.22 EFHD2     
 7 chr1:238632… chr1     2.39e7 2.39e7 chr1… -      AGGA…        3.08 FUCA1     
 8 chr1:238756… chr1     2.39e7 2.39e7 chr1… -      AAGA…        4.84 CNR2      
 9 chr1:281725… chr1     2.82e7 2.82e7 chr1… -      AGGA…        5.37 <NA>      
10 chr1:292069… chr1     2.92e7 2.92e7 chr1… -      CAGA…        4.60 MECR      
# … with 444 more rows, and 25 more variables: gene_ids <chr>,
#   SpliceDonor <chr>, UpstreamSpliceAcceptor <chr>, IntronType <chr>,
#   Steepness <dbl>, LowerLimit <dbl>, UpperLimit <dbl>, ED50_Branaplam <dbl>,
#   ED50_C2C5 <dbl>, ED50_Risdiplam <dbl>, spearman.coef.Branaplam <dbl>,
#   spearman.coef.C2C5 <dbl>, spearman.coef.Risdiplam <dbl>,
#   EC.Ratio.Test.Estimate_Branaplam.C2C5 <dbl>,
#   EC.Ratio.Test.Estimate_Branaplam.Risdiplam <dbl>, …

chRNA.Comparison.PSI.Inclusion.tidy

# A tibble: 5,474 × 10
   gid           treatment dose.nM cell.type libType UpstreamJunc DownstreamJunc
   <chr>         <chr>       <dbl> <chr>     <chr>          <dbl>          <dbl>
 1 chr10_clu_19… Branaplam    31.6 LCL       chRNA            0              0  
 2 chr10_clu_19… Branaplam    31.6 LCL       polyA            0              3.5
 3 chr10_clu_19… Branaplam  1000   LCL       chRNA            0              0  
 4 chr10_clu_19… Branaplam  1000   LCL       polyA           16              7.8
 5 chr10_clu_19… C2C5         10   LCL       chRNA           25              0  
 6 chr10_clu_19… C2C5         10   LCL       polyA            4.7            0  
 7 chr10_clu_19… C2C5        316   LCL       chRNA           22              0  
 8 chr10_clu_19… C2C5        316   LCL       polyA            7.9           13  
 9 chr10_clu_19… DMSO         NA   LCL       chRNA            0              0  
10 chr10_clu_19… DMSO         NA   LCL       polyA            0              0  
# … with 5,464 more rows, and 3 more variables: SkippingJunc <dbl>,
#   InclusionPSI <dbl>, TreatedOrControl <chr>
…
