2023-10-31_ExploreThreeMoleculesOfInterest
…
3c2aa40

Benjmain Fair

2023-11-01

dose response curves

CPM.mat <- cpm(gene.counts, prior.count = 0.1, log = T)

symbols <- read_tsv("../data/Genes.list.txt")

FullMetadata

# A tibble: 205 × 14
   treatment cell.type dose.nM libType   rep old.sample.name   SampleName bigwig
   <chr>     <chr>       <dbl> <chr>   <dbl> <chr>             <chr>      <chr> 
 1 WA01      LCL            NA polyA       1 NewMolecule.A01-1 WA01_NA_L… <NA>  
 2 WA02      LCL            NA polyA       1 NewMolecule.A02-1 WA02_NA_L… <NA>  
 3 WA03      LCL            NA polyA       1 NewMolecule.A03-1 WA03_NA_L… <NA>  
 4 WA04      LCL            NA polyA       1 NewMolecule.A04-1 WA04_NA_L… <NA>  
 5 WA05      LCL            NA polyA       1 NewMolecule.A05-1 WA05_NA_L… <NA>  
 6 WA06      LCL            NA polyA       1 NewMolecule.A06-1 WA06_NA_L… <NA>  
 7 WA07      LCL            NA polyA       1 NewMolecule.A07-1 WA07_NA_L… <NA>  
 8 WA08      LCL            NA polyA       1 NewMolecule.A08-1 WA08_NA_L… <NA>  
 9 WA09      LCL            NA polyA       1 NewMolecule.A09-1 WA09_NA_L… <NA>  
10 WA10      LCL            NA polyA       1 NewMolecule.A10-1 WA10_NA_L… <NA>  
# … with 195 more rows, and 6 more variables: group <chr>, color <chr>,
#   bed <chr>, supergroup <chr>, Experiment <chr>, leafcutter.name <chr>

FullMetadata %>%
  filter(Experiment == "Exp090823")

# A tibble: 32 × 14
   treatment cell.type dose.nM libType   rep old.sample.name   SampleName bigwig
   <chr>     <chr>       <dbl> <chr>   <dbl> <chr>             <chr>      <chr> 
 1 DMSO      LCL            NA polyA       1 Exp090823_DMSO_N… <NA>       <NA>  
 2 DMSO      LCL            NA polyA       2 Exp090823_DMSO_N… <NA>       <NA>  
 3 DMSO      LCL            NA polyA       3 Exp090823_DMSO_N… <NA>       <NA>  
 4 DMSO      LCL            NA polyA       4 Exp090823_DMSO_N… <NA>       <NA>  
 5 DMSO      LCL            NA polyA       5 Exp090823_DMSO_N… <NA>       <NA>  
 6 SMSM27    LCL           120 polyA       1 Exp090823_SMSM27… <NA>       <NA>  
 7 SMSM27    LCL           120 polyA       2 Exp090823_SMSM27… <NA>       <NA>  
 8 SMSM27    LCL           120 polyA       3 Exp090823_SMSM27… <NA>       <NA>  
 9 SMSM27    LCL           600 polyA       1 Exp090823_SMSM27… <NA>       <NA>  
10 SMSM27    LCL           600 polyA       2 Exp090823_SMSM27… <NA>       <NA>  
# … with 22 more rows, and 6 more variables: group <chr>, color <chr>,
#   bed <chr>, supergroup <chr>, Experiment <chr>, leafcutter.name <chr>
…
