20230322_CandidateGUUAAG_bulges
…
Not let’s plot dose response effect for all junctions with g|guUaag
5’ splice site.

PSI.tidy %>%
  filter(str_detect(seq, "^\\w\\w\\wGGTTAAG")) %>%
  distinct(junc)

# A tibble: 26 × 1
   junc                                 
   <chr>                                
 1 chr1:89107052:89108023:clu_962_-     
 2 chr10:72213331:72215782:clu_20614_-  
 3 chr10:110901612:110907680:clu_20928_-
 4 chr11:33869586:33869710:clu_21327_-  
 5 chr11:118910015:118911399:clu_22006_-
 6 chr12:30665306:30665729:clu_23504_-  
 7 chr12:30665309:30665729:clu_23504_-  
 8 chr12:108525609:108525776:clu_24071_-
 9 chr12:109939247:109945260:clu_24100_-
10 chr2:96529849:96532227:clu_4720_-    
# … with 16 more rows
…
