2023-10-26_ExploreDrmModels
…
expression.dat <- fread(f_in) %>%
  group_by(treatment) %>%
  mutate(doseRank = dense_rank(dose.nM)) %>%
  ungroup() %>%
  as_tibble() %>%
  mutate(doseInRisdiscale = case_when(
    treatment == "C2C5" ~ dose.nM * 10,
    treatment == "Branaplam" ~ dose.nM * sqrt(10),
    TRUE ~ dose.nM
  ))

expression.dat %>%
  distinct(doseInRisdiscale, treatment)

# A tibble: 27 × 2
   treatment doseInRisdiscale
   <chr>                <dbl>
 1 Branaplam          9993.  
 2 Branaplam          3162.  
 3 Branaplam           999.  
 4 Branaplam           316.  
 5 Branaplam            99.9 
 6 Branaplam            31.6 
 7 Branaplam             9.99
 8 Branaplam             3.16
 9 C2C5              10000   
10 C2C5               3160   
# … with 17 more rows
…
